{
  "example.org": {
    "default": {
      "uri": "https://foo.org/bar",
      "statusCode": 301,
      "statusDescription": "Moved Permanently"
    },
    "/fiz/buz": {
      "uri": "https://buz.org/fiz",
      "statusCode": 301,
      "statusDescription": "Moved Permanently"
    }
  }
}